// Jest Snapshot v1, https://goo.gl/fbAQLP

exports[`Reservation container renders correctly 1`] = `
<View
  style={
    Object {
      "flex": 1,
      "padding": 20,
    }
  }
>
  <View
    style={
      Object {
        "paddingVertical": 10,
        "width": "100%",
      }
    }
  >
    <Text
      style={
        Object {
          "color": "#616161",
          "fontFamily": "Lato-Regular",
          "paddingBottom": 5,
        }
      }
    >
      Full Name*
    </Text>
    <TextInput
      allowFontScaling={true}
      onChangeText={[Function]}
      placeholder="Enter your name"
      rejectResponderTermination={true}
      style={
        Object {
          "borderColor": "#E0E0E0",
          "borderRadius": 5,
          "borderWidth": 1,
          "fontFamily": "Lato-Regular",
          "padding": 10,
        }
      }
      underlineColorAndroid="transparent"
    />
  </View>
  <View
    style={
      Object {
        "paddingVertical": 10,
        "width": "100%",
      }
    }
  >
    <Text
      style={
        Object {
          "color": "#616161",
          "fontFamily": "Lato-Regular",
          "paddingBottom": 5,
        }
      }
    >
      Hotel Name*
    </Text>
    <TextInput
      allowFontScaling={true}
      onChangeText={[Function]}
      placeholder="Enter hotel name"
      rejectResponderTermination={true}
      style={
        Object {
          "borderColor": "#E0E0E0",
          "borderRadius": 5,
          "borderWidth": 1,
          "fontFamily": "Lato-Regular",
          "padding": 10,
        }
      }
      underlineColorAndroid="transparent"
    />
  </View>
  <View
    style={
      Object {
        "paddingVertical": 10,
        "width": "100%",
      }
    }
  >
    <Text
      style={
        Object {
          "color": "#616161",
          "fontFamily": "Lato-Regular",
          "paddingBottom": 5,
        }
      }
    >
      Arrival Date*
    </Text>
    <View
      accessible={true}
      isTVSelectable={true}
      onResponderGrant={[Function]}
      onResponderMove={[Function]}
      onResponderRelease={[Function]}
      onResponderTerminate={[Function]}
      onResponderTerminationRequest={[Function]}
      onStartShouldSetResponder={[Function]}
      style={
        Array [
          Object {
            "width": 142,
          },
          Object {
            "width": "100%",
          },
        ]
      }
    >
      <View
        style={
          Array [
            Object {
              "alignItems": "center",
              "flexDirection": "row",
              "height": 40,
              "justifyContent": "center",
            },
            undefined,
          ]
        }
      >
        <View
          style={
            Array [
              Object {
                "alignItems": "center",
                "borderColor": "#aaa",
                "borderWidth": 1,
                "flex": 1,
                "height": 40,
                "justifyContent": "center",
              },
              Object {
                "alignItems": "flex-start",
                "borderColor": "#E0E0E0",
                "borderRadius": 5,
                "borderWidth": 1,
                "justifyContent": "center",
                "paddingLeft": 10,
                "paddingRight": 10,
                "width": "100%",
              },
              false,
              false,
            ]
          }
        >
          <Text
            allowFontScaling={true}
            style={
              Array [
                Object {
                  "color": "#c9c9c9",
                },
                undefined,
              ]
            }
          >
            Pick a date
          </Text>
        </View>
        <Image
          source={
            Object {
              "testUri": "../../react-native-datepicker/date_icon.png",
            }
          }
          style={
            Array [
              Object {
                "height": 32,
                "marginLeft": 5,
                "marginRight": 5,
                "width": 32,
              },
              Object {
                "height": 24,
                "position": "absolute",
                "right": 8,
                "top": 8,
                "width": 24,
              },
            ]
          }
        />
        <Modal
          animationType="none"
          hardwareAccelerated={false}
          onRequestClose={[Function]}
          supportedOrientations={
            Array [
              "portrait",
              "portrait-upside-down",
              "landscape",
              "landscape-left",
              "landscape-right",
            ]
          }
          transparent={true}
          visible={false}
        >
          <View
            style={
              Object {
                "flex": 1,
              }
            }
          >
            <View
              accessible={true}
              isTVSelectable={true}
              onResponderGrant={[Function]}
              onResponderMove={[Function]}
              onResponderRelease={[Function]}
              onResponderTerminate={[Function]}
              onResponderTerminationRequest={[Function]}
              onStartShouldSetResponder={[Function]}
              style={
                Object {
                  "alignItems": "flex-end",
                  "backgroundColor": "#00000077",
                  "flex": 1,
                  "flexDirection": "row",
                }
              }
            >
              <View
                accessible={true}
                isTVSelectable={true}
                onResponderGrant={[Function]}
                onResponderMove={[Function]}
                onResponderRelease={[Function]}
                onResponderTerminate={[Function]}
                onResponderTerminationRequest={[Function]}
                onStartShouldSetResponder={[Function]}
                style={
                  Object {
                    "flex": 1,
                  }
                }
              >
                <View
                  style={
                    Object {
                      "backgroundColor": "#fff",
                      "height": 0,
                      "overflow": "hidden",
                    }
                  }
                >
                  <View
                    pointerEvents="auto"
                  >
                    <View
                      style={
                        Array [
                          Object {
                            "borderTopColor": "#ccc",
                            "borderTopWidth": 1,
                            "marginTop": 42,
                          },
                          undefined,
                        ]
                      }
                    >
                      <RCTDatePicker
                        date={1555609991921}
                        mode="date"
                        onChange={[Function]}
                        onResponderTerminationRequest={[Function]}
                        onStartShouldSetResponder={[Function]}
                        style={
                          Object {
                            "height": 216,
                          }
                        }
                        timeZoneOffsetInMinutes={null}
                      />
                    </View>
                  </View>
                  <View
                    accessible={true}
                    isTVSelectable={true}
                    onResponderGrant={[Function]}
                    onResponderMove={[Function]}
                    onResponderRelease={[Function]}
                    onResponderTerminate={[Function]}
                    onResponderTerminationRequest={[Function]}
                    onStartShouldSetResponder={[Function]}
                    style={
                      Array [
                        Object {
                          "alignItems": "center",
                          "flexDirection": "row",
                          "height": 42,
                          "justifyContent": "center",
                          "paddingHorizontal": 20,
                          "position": "absolute",
                          "top": 0,
                        },
                        Object {
                          "left": 0,
                        },
                        undefined,
                      ]
                    }
                  >
                    <Text
                      allowFontScaling={true}
                      style={
                        Array [
                          Object {
                            "color": "#46cf98",
                            "fontSize": 16,
                          },
                          Object {
                            "color": "#666",
                          },
                          undefined,
                        ]
                      }
                    >
                      Cancel
                    </Text>
                  </View>
                  <View
                    accessible={true}
                    isTVSelectable={true}
                    onResponderGrant={[Function]}
                    onResponderMove={[Function]}
                    onResponderRelease={[Function]}
                    onResponderTerminate={[Function]}
                    onResponderTerminationRequest={[Function]}
                    onStartShouldSetResponder={[Function]}
                    style={
                      Array [
                        Object {
                          "alignItems": "center",
                          "flexDirection": "row",
                          "height": 42,
                          "justifyContent": "center",
                          "paddingHorizontal": 20,
                          "position": "absolute",
                          "top": 0,
                        },
                        Object {
                          "right": 0,
                        },
                        undefined,
                      ]
                    }
                  >
                    <Text
                      allowFontScaling={true}
                      style={
                        Array [
                          Object {
                            "color": "#46cf98",
                            "fontSize": 16,
                          },
                          undefined,
                        ]
                      }
                    >
                      Confirm
                    </Text>
                  </View>
                </View>
              </View>
            </View>
          </View>
        </Modal>
      </View>
    </View>
  </View>
  <View
    style={
      Object {
        "paddingVertical": 10,
        "width": "100%",
      }
    }
  >
    <Text
      style={
        Object {
          "color": "#616161",
          "fontFamily": "Lato-Regular",
          "paddingBottom": 5,
        }
      }
    >
      Departure Date*
    </Text>
    <View
      accessible={true}
      isTVSelectable={true}
      onResponderGrant={[Function]}
      onResponderMove={[Function]}
      onResponderRelease={[Function]}
      onResponderTerminate={[Function]}
      onResponderTerminationRequest={[Function]}
      onStartShouldSetResponder={[Function]}
      style={
        Array [
          Object {
            "width": 142,
          },
          Object {
            "width": "100%",
          },
        ]
      }
    >
      <View
        style={
          Array [
            Object {
              "alignItems": "center",
              "flexDirection": "row",
              "height": 40,
              "justifyContent": "center",
            },
            undefined,
          ]
        }
      >
        <View
          style={
            Array [
              Object {
                "alignItems": "center",
                "borderColor": "#aaa",
                "borderWidth": 1,
                "flex": 1,
                "height": 40,
                "justifyContent": "center",
              },
              Object {
                "alignItems": "flex-start",
                "borderColor": "#E0E0E0",
                "borderRadius": 5,
                "borderWidth": 1,
                "justifyContent": "center",
                "paddingLeft": 10,
                "paddingRight": 10,
                "width": "100%",
              },
              false,
              false,
            ]
          }
        >
          <Text
            allowFontScaling={true}
            style={
              Array [
                Object {
                  "color": "#c9c9c9",
                },
                undefined,
              ]
            }
          >
            Pick a date
          </Text>
        </View>
        <Image
          source={
            Object {
              "testUri": "../../react-native-datepicker/date_icon.png",
            }
          }
          style={
            Array [
              Object {
                "height": 32,
                "marginLeft": 5,
                "marginRight": 5,
                "width": 32,
              },
              Object {
                "height": 24,
                "position": "absolute",
                "right": 8,
                "top": 8,
                "width": 24,
              },
            ]
          }
        />
        <Modal
          animationType="none"
          hardwareAccelerated={false}
          onRequestClose={[Function]}
          supportedOrientations={
            Array [
              "portrait",
              "portrait-upside-down",
              "landscape",
              "landscape-left",
              "landscape-right",
            ]
          }
          transparent={true}
          visible={false}
        >
          <View
            style={
              Object {
                "flex": 1,
              }
            }
          >
            <View
              accessible={true}
              isTVSelectable={true}
              onResponderGrant={[Function]}
              onResponderMove={[Function]}
              onResponderRelease={[Function]}
              onResponderTerminate={[Function]}
              onResponderTerminationRequest={[Function]}
              onStartShouldSetResponder={[Function]}
              style={
                Object {
                  "alignItems": "flex-end",
                  "backgroundColor": "#00000077",
                  "flex": 1,
                  "flexDirection": "row",
                }
              }
            >
              <View
                accessible={true}
                isTVSelectable={true}
                onResponderGrant={[Function]}
                onResponderMove={[Function]}
                onResponderRelease={[Function]}
                onResponderTerminate={[Function]}
                onResponderTerminationRequest={[Function]}
                onStartShouldSetResponder={[Function]}
                style={
                  Object {
                    "flex": 1,
                  }
                }
              >
                <View
                  style={
                    Object {
                      "backgroundColor": "#fff",
                      "height": 0,
                      "overflow": "hidden",
                    }
                  }
                >
                  <View
                    pointerEvents="auto"
                  >
                    <View
                      style={
                        Array [
                          Object {
                            "borderTopColor": "#ccc",
                            "borderTopWidth": 1,
                            "marginTop": 42,
                          },
                          undefined,
                        ]
                      }
                    >
                      <RCTDatePicker
                        date={1555609992144}
                        mode="date"
                        onChange={[Function]}
                        onResponderTerminationRequest={[Function]}
                        onStartShouldSetResponder={[Function]}
                        style={
                          Object {
                            "height": 216,
                          }
                        }
                        timeZoneOffsetInMinutes={null}
                      />
                    </View>
                  </View>
                  <View
                    accessible={true}
                    isTVSelectable={true}
                    onResponderGrant={[Function]}
                    onResponderMove={[Function]}
                    onResponderRelease={[Function]}
                    onResponderTerminate={[Function]}
                    onResponderTerminationRequest={[Function]}
                    onStartShouldSetResponder={[Function]}
                    style={
                      Array [
                        Object {
                          "alignItems": "center",
                          "flexDirection": "row",
                          "height": 42,
                          "justifyContent": "center",
                          "paddingHorizontal": 20,
                          "position": "absolute",
                          "top": 0,
                        },
                        Object {
                          "left": 0,
                        },
                        undefined,
                      ]
                    }
                  >
                    <Text
                      allowFontScaling={true}
                      style={
                        Array [
                          Object {
                            "color": "#46cf98",
                            "fontSize": 16,
                          },
                          Object {
                            "color": "#666",
                          },
                          undefined,
                        ]
                      }
                    >
                      Cancel
                    </Text>
                  </View>
                  <View
                    accessible={true}
                    isTVSelectable={true}
                    onResponderGrant={[Function]}
                    onResponderMove={[Function]}
                    onResponderRelease={[Function]}
                    onResponderTerminate={[Function]}
                    onResponderTerminationRequest={[Function]}
                    onStartShouldSetResponder={[Function]}
                    style={
                      Array [
                        Object {
                          "alignItems": "center",
                          "flexDirection": "row",
                          "height": 42,
                          "justifyContent": "center",
                          "paddingHorizontal": 20,
                          "position": "absolute",
                          "top": 0,
                        },
                        Object {
                          "right": 0,
                        },
                        undefined,
                      ]
                    }
                  >
                    <Text
                      allowFontScaling={true}
                      style={
                        Array [
                          Object {
                            "color": "#46cf98",
                            "fontSize": 16,
                          },
                          undefined,
                        ]
                      }
                    >
                      Confirm
                    </Text>
                  </View>
                </View>
              </View>
            </View>
          </View>
        </Modal>
      </View>
    </View>
  </View>
  <View
    style={
      Object {
        "paddingVertical": 10,
        "width": "100%",
      }
    }
  >
    <View
      accessible={true}
      isTVSelectable={true}
      onResponderGrant={[Function]}
      onResponderMove={[Function]}
      onResponderRelease={[Function]}
      onResponderTerminate={[Function]}
      onResponderTerminationRequest={[Function]}
      onStartShouldSetResponder={[Function]}
      style={
        Object {
          "backgroundColor": "#1976D2",
          "borderRadius": 5,
          "opacity": 1,
          "padding": 15,
          "width": "100%",
        }
      }
    >
      <Text
        style={
          Array [
            Object {
              "fontFamily": "Lato-Heavy",
              "fontSize": 16,
              "textAlign": "center",
            },
            Object {
              "color": "#FFFFFF",
            },
          ]
        }
      >
        SUBMIT RESERVATION
      </Text>
    </View>
  </View>
</View>
`;
